sim/testbench_tb.vcd
$date
	Wed Oct 30 11:24:23 2024
$end
$version
	Icarus Verilog
$end
$timescale
	1ps
$end
$scope module testbench $end
$var wire 32 ! DataAdr [31:0] $end
$var wire 32 " Data [31:0] $end
$var wire 1 # ControlW $end
$var reg 1 $ RST $end
$var reg 1 % clk $end
$scope module dut $end
$var wire 1 % clk $end
$var wire 1 $ reset $end
$var wire 32 & ReadDataM [31:0] $end
$var wire 32 ' PC [31:0] $end
$var wire 32 ( InstrF [31:0] $end
$var wire 32 ) DataAdr [31:0] $end
$var wire 32 * Data [31:0] $end
$var wire 1 # ControlW $end
$scope module DM $end
$var wire 1 % clk $end
$var wire 32 + rd [31:0] $end
$var wire 32 , addr [31:0] $end
$var wire 32 - DataW [31:0] $end
$var wire 1 # ControlW $end
$upscope $end
$scope module IM $end
$var wire 32 . InstrF [31:0] $end
$var wire 32 / addr [31:0] $end
$upscope $end
$scope module RV $end
$var wire 32 0 InstrF [31:0] $end
$var wire 32 1 ReadDataM [31:0] $end
$var wire 1 % clk $end
$var wire 1 $ reset $end
$var wire 1 2 ZeroE $end
$var wire 32 3 WriteDataM [31:0] $end
$var wire 1 4 StallF $end
$var wire 1 5 StallD $end
$var wire 1 6 SignE $end
$var wire 5 7 Rs2E [4:0] $end
$var wire 5 8 Rs2D [4:0] $end
$var wire 5 9 Rs1E [4:0] $end
$var wire 5 : Rs1D [4:0] $end
$var wire 2 ; ResultSrcW [1:0] $end
$var wire 1 < ResultSrcE0 $end
$var wire 1 = RegWriteW $end
$var wire 1 > RegWriteM $end
$var wire 5 ? RdW [4:0] $end
$var wire 5 @ RdM [4:0] $end
$var wire 5 A RdE [4:0] $end
$var wire 1 B PCSrcE $end
$var wire 1 C PCJalSrcE $end
$var wire 32 D PC [31:0] $end
$var wire 1 # MemWriteM $end
$var wire 32 E InstrD [31:0] $end
$var wire 3 F ImmSrcD [2:0] $end
$var wire 2 G ForwardBE [1:0] $end
$var wire 2 H ForwardAE [1:0] $end
$var wire 1 I FlushE $end
$var wire 1 J FlushD $end
$var wire 2 K ALUSrcBE [1:0] $end
$var wire 1 L ALUSrcAE $end
$var wire 32 M ALUResultM [31:0] $end
$var wire 4 N ALUControlE [3:0] $end
$scope module CU $end
$var wire 1 B PCSrcE $end
$var wire 1 O SignOpE $end
$var wire 1 P ZeroOpE $end
$var wire 1 % clk $end
$var wire 3 Q funct3 [2:0] $end
$var wire 3 R funct3D [2:0] $end
$var wire 1 S funct7b5 $end
$var wire 7 T op [6:0] $end
$var wire 7 U opD [6:0] $end
$var wire 1 $ reset $end
$var wire 7 V opE [6:0] $end
$var wire 3 W funct3E [2:0] $end
$var wire 1 2 ZeroE $end
$var wire 1 6 SignE $end
$var wire 2 X ResultSrcW [1:0] $end
$var wire 2 Y ResultSrcM [1:0] $end
$var wire 1 < ResultSrcE0 $end
$var wire 2 Z ResultSrcE [1:0] $end
$var wire 2 [ ResultSrcD [1:0] $end
$var wire 1 = RegWriteW $end
$var wire 1 > RegWriteM $end
$var wire 1 \ RegWriteE $end
$var wire 1 ] RegWriteD $end
$var wire 1 C PCJalSrcE $end
$var wire 1 # MemWriteM $end
$var wire 1 ^ MemWriteE $end
$var wire 1 _ MemWriteD $end
$var wire 1 ` JumpE $end
$var wire 1 a JumpD $end
$var wire 3 b ImmSrcD [2:0] $end
$var wire 1 I FlushE $end
$var wire 1 c BranchOpE $end
$var wire 1 d BranchE $end
$var wire 1 e BranchD $end
$var wire 2 f ALUSrcBE [1:0] $end
$var wire 2 g ALUSrcBD [1:0] $end
$var wire 1 L ALUSrcAE $end
$var wire 1 h ALUSrcAD $end
$var wire 2 i ALUOpD [1:0] $end
$var wire 4 j ALUControlE [3:0] $end
$var wire 4 k ALUControlD [3:0] $end
$scope module CS $end
$var wire 7 l op [6:0] $end
$var wire 2 m ResultSrc [1:0] $end
$var wire 1 ] RegWrite $end
$var wire 1 _ MemWrite $end
$var wire 1 a Jump $end
$var wire 3 n ImmSrc [2:0] $end
$var wire 1 e Branch $end
$var wire 2 o ALUSrcB [1:0] $end
$var wire 1 h ALUSrcA $end
$var wire 2 p ALUOp [1:0] $end
$var reg 14 q controls [13:0] $end
$upscope $end
$scope module DecA $end
$var wire 2 r ALUOp [1:0] $end
$var wire 1 s RtypeSub $end
$var wire 3 t funct3 [2:0] $end
$var wire 1 S funct7b5 $end
$var wire 1 u opb5 $end
$var reg 4 v ALUControl [3:0] $end
$upscope $end
$scope module FFDE $end
$var wire 4 w ALUControlD [3:0] $end
$var wire 1 h ALUSrcAD $end
$var wire 2 x ALUSrcBD [1:0] $end
$var wire 1 e BranchD $end
$var wire 1 a JumpD $end
$var wire 1 _ MemWriteD $end
$var wire 1 ] RegWriteD $end
$var wire 2 y ResultSrcD [1:0] $end
$var wire 1 % clk $end
$var wire 3 z funct3D [2:0] $end
$var wire 7 { opD [6:0] $end
$var wire 1 $ reset $end
$var wire 1 I clear $end
$var reg 4 | ALUControlE [3:0] $end
$var reg 1 L ALUSrcAE $end
$var reg 2 } ALUSrcBE [1:0] $end
$var reg 1 d BranchE $end
$var reg 1 ` JumpE $end
$var reg 1 ^ MemWriteE $end
$var reg 1 \ RegWriteE $end
$var reg 2 ~ ResultSrcE [1:0] $end
$var reg 3 !" funct3E [2:0] $end
$var reg 7 "" opE [6:0] $end
$upscope $end
$scope module FFEM $end
$var wire 1 ^ MemWriteE $end
$var wire 1 \ RegWriteE $end
$var wire 2 #" ResultSrcE [1:0] $end
$var wire 1 % clk $end
$var wire 1 $ reset $end
$var reg 1 # MemWriteM $end
$var reg 1 > RegWriteM $end
$var reg 2 $" ResultSrcM [1:0] $end
$upscope $end
$scope module FFMWB $end
$var wire 1 > RegWriteM $end
$var wire 2 %" ResultSrcM [1:0] $end
$var wire 1 % clk $end
$var wire 1 $ reset $end
$var reg 1 = RegWriteW $end
$var reg 2 &" ResultSrcW [1:0] $end
$upscope $end
$upscope $end
$scope module DP $end
$var wire 4 '" ALUControlE [3:0] $end
$var wire 1 L ALUSrcAE $end
$var wire 2 (" ALUSrcBE [1:0] $end
$var wire 3 )" ImmSrcD [2:0] $end
$var wire 32 *" InstrF [31:0] $end
$var wire 1 C PCJalSrcE $end
$var wire 1 B PCSrcE $end
$var wire 32 +" ReadDataM [31:0] $end
$var wire 1 = RegWriteW $end
$var wire 2 ," ResultSrcW [1:0] $end
$var wire 1 % clk $end
$var wire 1 $ reset $end
$var wire 1 2 ZeroE $end
$var wire 32 -" WriteDataM [31:0] $end
$var wire 32 ." WriteDataE [31:0] $end
$var wire 1 4 StallF $end
$var wire 1 5 StallD $end
$var wire 32 /" SrcBE [31:0] $end
$var wire 32 0" SrcAEfor [31:0] $end
$var wire 32 1" SrcAE [31:0] $end
$var wire 1 6 SignE $end
$var wire 5 2" Rs2E [4:0] $end
$var wire 5 3" Rs2D [4:0] $end
$var wire 5 4" Rs1E [4:0] $end
$var wire 5 5" Rs1D [4:0] $end
$var wire 32 6" ResultW [31:0] $end
$var wire 32 7" ReadDataW [31:0] $end
$var wire 5 8" RdW [4:0] $end
$var wire 5 9" RdM [4:0] $end
$var wire 5 :" RdE [4:0] $end
$var wire 5 ;" RdD [4:0] $end
$var wire 32 <" RD2E [31:0] $end
$var wire 32 =" RD2D [31:0] $end
$var wire 32 >" RD1E [31:0] $end
$var wire 32 ?" RD1D [31:0] $end
$var wire 32 @" PCTargetE [31:0] $end
$var wire 32 A" PCPlus4W [31:0] $end
$var wire 32 B" PCPlus4M [31:0] $end
$var wire 32 C" PCPlus4F [31:0] $end
$var wire 32 D" PCPlus4E [31:0] $end
$var wire 32 E" PCPlus4D [31:0] $end
$var wire 32 F" PCNextF [31:0] $end
$var wire 32 G" PCF [31:0] $end
$var wire 32 H" PCE [31:0] $end
$var wire 32 I" PCD [31:0] $end
$var wire 32 J" InstrD [31:0] $end
$var wire 32 K" ImmExtE [31:0] $end
$var wire 32 L" ImmExtD [31:0] $end
$var wire 2 M" ForwardBE [1:0] $end
$var wire 2 N" ForwardAE [1:0] $end
$var wire 1 I FlushE $end
$var wire 1 J FlushD $end
$var wire 32 O" BranJumpTargetE [31:0] $end
$var wire 32 P" ALUResultW [31:0] $end
$var wire 32 Q" ALUResultM [31:0] $end
$var wire 32 R" ALUResultE [31:0] $end
$scope module FF_DE $end
$var wire 5 S" RdD [4:0] $end
$var wire 5 T" Rs1D [4:0] $end
$var wire 5 U" Rs2D [4:0] $end
$var wire 1 % clk $end
$var wire 1 $ reset $end
$var wire 1 I clear $end
$var wire 32 V" RD2D [31:0] $end
$var wire 32 W" RD1D [31:0] $end
$var wire 32 X" PCPlus4D [31:0] $end
$var wire 32 Y" PCD [31:0] $end
$var wire 32 Z" ImmExtD [31:0] $end
$var reg 32 [" ImmExtE [31:0] $end
$var reg 32 \" PCE [31:0] $end
$var reg 32 ]" PCPlus4E [31:0] $end
$var reg 32 ^" RD1E [31:0] $end
$var reg 32 _" RD2E [31:0] $end
$var reg 5 `" RdE [4:0] $end
$var reg 5 a" Rs1E [4:0] $end
$var reg 5 b" Rs2E [4:0] $end
$upscope $end
$scope module FF_DM $end
$var wire 32 c" PCPlus4E [31:0] $end
$var wire 5 d" RdE [4:0] $end
$var wire 1 % clk $end
$var wire 1 $ reset $end
$var wire 32 e" WriteDataE [31:0] $end
$var wire 32 f" ALUResultE [31:0] $end
$var reg 32 g" ALUResultM [31:0] $end
$var reg 32 h" PCPlus4M [31:0] $end
$var reg 5 i" RdM [4:0] $end
$var reg 32 j" WriteDataM [31:0] $end
$upscope $end
$scope module FF_FD $end
$var wire 32 k" InstrF [31:0] $end
$var wire 1 % clk $end
$var wire 1 l" enable $end
$var wire 1 $ reset $end
$var wire 1 J clear $end
$var wire 32 m" PCPlus4F [31:0] $end
$var wire 32 n" PCF [31:0] $end
$var reg 32 o" InstrD [31:0] $end
$var reg 32 p" PCD [31:0] $end
$var reg 32 q" PCPlus4D [31:0] $end
$upscope $end
$scope module FF_MWb $end
$var wire 32 r" ALUResultM [31:0] $end
$var wire 32 s" PCPlus4M [31:0] $end
$var wire 5 t" RdM [4:0] $end
$var wire 32 u" ReadDataM [31:0] $end
$var wire 1 % clk $end
$var wire 1 $ reset $end
$var reg 32 v" ALUResultW [31:0] $end
$var reg 32 w" PCPlus4W [31:0] $end
$var reg 5 x" RdW [4:0] $end
$var reg 32 y" ReadDataW [31:0] $end
$upscope $end
$scope module IF $end
$var wire 1 % clk $end
$var wire 1 z" en $end
$var wire 1 $ reset $end
$var wire 32 {" d [31:0] $end
$var reg 32 |" q [31:0] $end
$upscope $end
$scope module InmMUX $end
$var wire 32 }" d1 [31:0] $end
$var wire 2 ~" s [1:0] $end
$var wire 32 !# y [31:0] $end
$var wire 32 "# d2 [31:0] $end
$var wire 32 ## d0 [31:0] $end
$upscope $end
$scope module RD1MUX $end
$var wire 32 $# d0 [31:0] $end
$var wire 32 %# d2 [31:0] $end
$var wire 32 &# y [31:0] $end
$var wire 2 '# s [1:0] $end
$var wire 32 (# d1 [31:0] $end
$upscope $end
$scope module RD2MUX $end
$var wire 32 )# d0 [31:0] $end
$var wire 32 *# d2 [31:0] $end
$var wire 32 +# y [31:0] $end
$var wire 2 ,# s [1:0] $end
$var wire 32 -# d1 [31:0] $end
$upscope $end
$scope module alu $end
$var wire 4 .# ALUControl [3:0] $end
$var wire 1 /# Overflow $end
$var wire 32 0# SrcB [31:0] $end
$var wire 1 2 Zero $end
$var wire 32 1# Sum [31:0] $end
$var wire 32 2# SrcA [31:0] $end
$var wire 1 6 Sign $end
$var reg 32 3# ALUResult [31:0] $end
$upscope $end
$scope module ext $end
$var wire 3 4# immsrc [2:0] $end
$var wire 25 5# instr [31:7] $end
$var reg 32 6# immext [31:0] $end
$upscope $end
$scope module finalmux $end
$var wire 32 7# d0 [31:0] $end
$var wire 32 8# d1 [31:0] $end
$var wire 32 9# d2 [31:0] $end
$var wire 2 :# s [1:0] $end
$var wire 32 ;# y [31:0] $end
$upscope $end
$scope module jal_r $end
$var wire 32 <# d1 [31:0] $end
$var wire 1 C s $end
$var wire 32 =# y [31:0] $end
$var wire 32 ># d0 [31:0] $end
$upscope $end
$scope module luimux $end
$var wire 32 ?# d0 [31:0] $end
$var wire 32 @# d1 [31:0] $end
$var wire 1 L s $end
$var wire 32 A# y [31:0] $end
$upscope $end
$scope module pcadd4 $end
$var wire 32 B# a [31:0] $end
$var wire 32 C# b [31:0] $end
$var wire 32 D# y [31:0] $end
$upscope $end
$scope module pcadderJumpBranch $end
$var wire 32 E# a [31:0] $end
$var wire 32 F# b [31:0] $end
$var wire 32 G# y [31:0] $end
$upscope $end
$scope module pcmux $end
$var wire 32 H# d0 [31:0] $end
$var wire 32 I# d1 [31:0] $end
$var wire 1 B s $end
$var wire 32 J# y [31:0] $end
$upscope $end
$scope module rf $end
$var wire 5 K# a1 [4:0] $end
$var wire 5 L# a2 [4:0] $end
$var wire 5 M# a3 [4:0] $end
$var wire 1 % clk $end
$var wire 32 N# wd3 [31:0] $end
$var wire 1 = we3 $end
$var wire 32 O# rd2 [31:0] $end
$var wire 32 P# rd1 [31:0] $end
$upscope $end
$upscope $end
$scope module HU $end
$var wire 1 J FlushD $end
$var wire 1 I FlushE $end
$var wire 1 B PCSrcE $end
$var wire 5 Q# RdE [4:0] $end
$var wire 5 R# RdM [4:0] $end
$var wire 5 S# RdW [4:0] $end
$var wire 1 > RegWriteM $end
$var wire 1 = RegWriteW $end
$var wire 1 < ResultSrcE0 $end
$var wire 5 T# Rs1D [4:0] $end
$var wire 5 U# Rs1E [4:0] $end
$var wire 5 V# Rs2D [4:0] $end
$var wire 5 W# Rs2E [4:0] $end
$var wire 1 5 StallD $end
$var wire 1 4 StallF $end
$var wire 1 X# lwStall $end
$var reg 2 Y# ForwardAE [1:0] $end
$var reg 2 Z# ForwardBE [1:0] $end
$upscope $end
$upscope $end
$upscope $end
$upscope $end
$enddefinitions $end
$comment Show the parameter values. $end
$dumpall
$end
#0
$dumpvars
b0 Z#
b0 Y#
xX#
bx W#
bx V#
bx U#
bx T#
bx S#
bx R#
bx Q#
bx P#
bx O#
bx N#
bx M#
bx L#
bx K#
bx J#
bx I#
bx H#
bx G#
bx F#
bx E#
bx D#
b100 C#
bx B#
bx A#
b0 @#
bx ?#
bx >#
bx =#
bx <#
bx ;#
bx :#
bx 9#
bx 8#
bx 7#
bx 6#
bx 5#
bx 4#
bx 3#
bx 2#
bx 1#
bx 0#
x/#
bx .#
bx -#
b0 ,#
bx +#
bx *#
bx )#
bx (#
b0 '#
bx &#
bx %#
bx $#
bx ##
bx "#
bx !#
bx ~"
bx }"
bx |"
bx {"
xz"
bx y"
bx x"
bx w"
bx v"
bx u"
bx t"
bx s"
bx r"
bx q"
bx p"
bx o"
bx n"
bx m"
xl"
bx k"
bx j"
bx i"
bx h"
bx g"
bx f"
bx e"
bx d"
bx c"
bx b"
bx a"
bx `"
bx _"
bx ^"
bx ]"
bx \"
bx ["
bx Z"
bx Y"
bx X"
bx W"
bx V"
bx U"
bx T"
bx S"
bx R"
bx Q"
bx P"
bx O"
b0 N"
b0 M"
bx L"
bx K"
bx J"
bx I"
bx H"
bx G"
bx F"
bx E"
bx D"
bx C"
bx B"
bx A"
bx @"
bx ?"
bx >"
bx ="
bx <"
bx ;"
bx :"
bx 9"
bx 8"
bx 7"
bx 6"
bx 5"
bx 4"
bx 3"
bx 2"
bx 1"
bx 0"
bx /"
bx ."
bx -"
bx ,"
bx +"
bx *"
bx )"
bx ("
bx '"
bx &"
bx %"
bx $"
bx #"
bx ""
bx !"
bx ~
bx }
bx |
bx {
bx z
bx y
bx x
bx w
bx v
xu
bx t
xs
bx r
bx q
bx p
bx o
bx n
bx m
bx l
bx k
bx j
bx i
xh
bx g
bx f
xe
xd
xc
bx b
xa
x`
x_
x^
x]
x\
bx [
bx Z
bx Y
bx X
bx W
bx V
bx U
bx T
xS
bx R
bx Q
xP
xO
bx N
bx M
xL
bx K
xJ
xI
b0 H
b0 G
bx F
bx E
bx D
xC
xB
bx A
bx @
bx ?
x>
x=
x<
bx ;
bx :
bx 9
bx 8
bx 7
x6
x5
x4
bx 3
x2
bx 1
bx 0
bx /
bx .
bx -
bx ,
bx +
bx *
bx )
bx (
bx '
bx &
0%
0$
x#
bx "
bx !
$end
#5000
0/#
1c
1P
0O
12
06
b0 L"
b0 Z"
b0 6#
b0 O"
b0 =#
b0 I#
1z"
1l"
b0 R"
b0 f"
b0 3#
b0 <#
b100 F"
b100 {"
b100 J#
0I
0]
b0 F
b0 b
b0 n
b0 )"
b0 4#
0h
b0 g
b0 o
b0 x
0_
b0 [
b0 m
b0 y
0e
b0 i
b0 p
b0 r
0a
b0 1#
b0 1"
b0 2#
b0 A#
0C
04
05
0X#
b0 /"
b0 !#
b0 0#
0J
0B
b0 ="
b0 V"
b0 O#
b0 ?"
b0 W"
b0 P#
0s
b0 k
b0 v
b0 w
0u
b0 q
b0 ."
b0 e"
b0 ##
b0 +#
b0 0"
b0 &#
b0 ?#
0<
b100000000000000000001100010011 (
b100000000000000000001100010011 .
b100000000000000000001100010011 0
b100000000000000000001100010011 *"
b100000000000000000001100010011 k"
b0 5#
b0 ;"
b0 S"
b0 8
b0 3"
b0 U"
b0 L#
b0 V#
b0 :
b0 5"
b0 T"
b0 K#
b0 T#
0S
b0 R
b0 z
b0 Q
b0 t
b0 U
b0 {
b0 T
b0 l
b0 6"
b0 (#
b0 -#
b0 ;#
b0 N#
b0 V
b0 ""
b0 W
b0 !"
b0 N
b0 j
b0 |
b0 '"
b0 .#
b0 Z
b0 ~
b0 #"
b0 K
b0 f
b0 }
b0 ("
b0 ~"
0L
0d
0`
0^
0\
b0 Y
b0 $"
b0 %"
0#
0>
b0 ;
b0 X
b0 &"
b0 ,"
b0 :#
0=
b100 C"
b100 m"
b100 D#
b100 H#
b0 '
b0 /
b0 D
b0 G"
b0 n"
b0 |"
b0 B#
b0 E"
b0 X"
b0 q"
b0 I"
b0 Y"
b0 p"
b0 E
b0 J"
b0 o"
b0 D"
b0 ]"
b0 c"
b0 @"
b0 "#
b0 >#
b0 G#
b0 K"
b0 ["
b0 }"
b0 F#
b0 A
b0 :"
b0 `"
b0 d"
b0 Q#
b0 7
b0 2"
b0 b"
b0 W#
b0 9
b0 4"
b0 a"
b0 U#
b0 H"
b0 \"
b0 E#
b0 <"
b0 _"
b0 )#
b0 >"
b0 ^"
b0 $#
b0 B"
b0 h"
b0 s"
b0 @
b0 9"
b0 i"
b0 t"
b0 R#
b0 "
b0 *
b0 -
b0 3
b0 -"
b0 j"
b0 !
b0 )
b0 ,
b0 M
b0 Q"
b0 g"
b0 r"
b0 %#
b0 *#
b0 A"
b0 w"
b0 9#
b0 ?
b0 8"
b0 x"
b0 M#
b0 S#
b0 7"
b0 y"
b0 8#
b0 P"
b0 v"
b0 7#
1$
#10000
1%
#20000
0%
#30000
1%
#40000
0%
#50000
1%
#55000
0$
#60000
0%
#70000
1]
b1 g
b1 o
b1 x
b10 i
b10 p
b10 r
b1000000000 L"
b1000000000 Z"
b1000000000 6#
b10000010000100 q
b1000 F"
b1000 {"
b1000 J#
b10000110001001100010011 (
b10000110001001100010011 .
b10000110001001100010011 0
b10000110001001100010011 *"
b10000110001001100010011 k"
b10000000000000000000110 5#
b110 ;"
b110 S"
b10011 U
b10011 {
b10011 T
b10011 l
b1000 C"
b1000 m"
b1000 D#
b1000 H#
b100 '
b100 /
b100 D
b100 G"
b100 n"
b100 |"
b100 B#
b100 E"
b100 X"
b100 q"
b100000000000000000001100010011 E
b100000000000000000001100010011 J"
b100000000000000000001100010011 o"
bx 7"
bx y"
bx 8#
1%
#80000
0%
#90000
0c
0P
02
b1000000000 R"
b1000000000 f"
b1000000000 3#
b1000000000 <#
b1000000000 1#
b1000000000 /"
b1000000000 !#
b1000000000 0#
b100 L"
b100 Z"
b100 6#
bx ="
bx V"
bx O#
bx ?"
bx W"
bx P#
b100 k
b100 v
b100 w
b1000000000 O"
b1000000000 =#
b1000000000 I#
b1000011000100110 5#
b100 8
b100 3"
b100 U"
b100 L#
b100 V#
b110 :
b110 5"
b110 T"
b110 K#
b110 T#
b1 R
b1 z
b1 Q
b1 t
b1100 F"
b1100 {"
b1100 J#
b10000000000001010010011 (
b10000000000001010010011 .
b10000000000001010010011 0
b10000000000001010010011 *"
b10000000000001010010011 k"
b100 D"
b100 ]"
b100 c"
b1000000000 @"
b1000000000 "#
b1000000000 >#
b1000000000 G#
b1000000000 K"
b1000000000 ["
b1000000000 }"
b1000000000 F#
b110 A
b110 :"
b110 `"
b110 d"
b110 Q#
b1000 E"
b1000 X"
b1000 q"
b100 I"
b100 Y"
b100 p"
b10000110001001100010011 E
b10000110001001100010011 J"
b10000110001001100010011 o"
b1100 C"
b1100 m"
b1100 D#
b1100 H#
b1000 '
b1000 /
b1000 D
b1000 G"
b1000 n"
b1000 |"
b1000 B#
b10011 V
b10011 ""
b1 K
b1 f
b1 }
b1 ("
b1 ~"
1\
1%
#100000
0%
#110000
1c
1P
b1000000100 1#
b1000000000 1"
b1000000000 2#
b1000000000 A#
1O
02
b0 ?"
b0 W"
b0 P#
b0 k
b0 v
b0 w
b100 /"
b100 !#
b100 0#
bx ."
bx e"
bx ##
bx +#
b1000000000 0"
b1000000000 &#
b1000000000 ?#
b10000000000000 R"
b10000000000000 f"
b10000000000000 3#
b10000000000000 <#
b10000 F"
b10000 {"
b10000 J#
b10100110010000000100011 (
b10100110010000000100011 .
b10100110010000000100011 0
b10100110010000000100011 *"
b10100110010000000100011 k"
b1000000000000101 5#
b101 ;"
b101 S"
b0 :
b0 5"
b0 T"
b0 K#
b0 T#
b0 R
b0 z
b0 Q
b0 t
b1000 O"
b1000 =#
b1000 I#
b10 H
b10 N"
b10 '#
b10 Y#
b1 W
b1 !"
b100 N
b100 j
b100 |
b100 '"
b100 .#
1>
b10000 C"
b10000 m"
b10000 D#
b10000 H#
b1100 '
b1100 /
b1100 D
b1100 G"
b1100 n"
b1100 |"
b1100 B#
b1100 E"
b1100 X"
b1100 q"
b1000 I"
b1000 Y"
b1000 p"
b10000000000001010010011 E
b10000000000001010010011 J"
b10000000000001010010011 o"
b1000 D"
b1000 ]"
b1000 c"
b100 K"
b100 ["
b100 }"
b100 F#
b100 7
b100 2"
b100 b"
b100 W#
b110 9
b110 4"
b110 a"
b110 U#
b1000 @"
b1000 "#
b1000 >#
b1000 G#
b100 H"
b100 \"
b100 E#
bx <"
bx _"
bx )#
bx >"
bx ^"
bx $#
b100 B"
b100 h"
b100 s"
b110 @
b110 9"
b110 i"
b110 t"
b110 R#
b1000000000 !
b1000000000 )
b1000000000 ,
b1000000000 M
b1000000000 Q"
b1000000000 g"
b1000000000 r"
b1000000000 %#
b1000000000 *#
1%
#120000
0%
#130000
0]
b1 F
b1 b
b1 n
b1 )"
b1 4#
1_
b0 i
b0 p
b0 r
0c
b1000000000 6"
b1000000000 (#
b1000000000 -#
b1000000000 ;#
b1000000000 N#
b100 1#
b0 1"
b0 2#
b0 A#
b0 L"
b0 Z"
b0 6#
bx ?"
bx W"
bx P#
b0 k
b0 v
b0 w
1u
b10011000000 q
0O
0P
b0 0"
b0 &#
b0 ?#
b1100 O"
b1100 =#
b1100 I#
b1010011001000000 5#
b0 ;"
b0 S"
b101 8
b101 3"
b101 U"
b101 L#
b101 V#
b110 :
b110 5"
b110 T"
b110 K#
b110 T#
b10 R
b10 z
b10 Q
b10 t
b100011 U
b100011 {
b100011 T
b100011 l
b10100 F"
b10100 {"
b10100 J#
b10000110000001100010011 (
b10000110000001100010011 .
b10000110000001100010011 0
b10000110000001100010011 *"
b10000110000001100010011 k"
b0 H
b0 N"
b0 '#
b0 Y#
b100 R"
b100 f"
b100 3#
b100 <#
b100 A"
b100 w"
b100 9#
b110 ?
b110 8"
b110 x"
b110 M#
b110 S#
b1000000000 P"
b1000000000 v"
b1000000000 7#
b1000 B"
b1000 h"
b1000 s"
bx "
bx *
bx -
bx 3
bx -"
bx j"
b10000000000000 !
b10000000000000 )
b10000000000000 ,
b10000000000000 M
b10000000000000 Q"
b10000000000000 g"
b10000000000000 r"
b10000000000000 %#
b10000000000000 *#
b1100 D"
b1100 ]"
b1100 c"
b101 A
b101 :"
b101 `"
b101 d"
b101 Q#
b0 9
b0 4"
b0 a"
b0 U#
b1100 @"
b1100 "#
b1100 >#
b1100 G#
b1000 H"
b1000 \"
b1000 E#
b0 >"
b0 ^"
b0 $#
b10000 E"
b10000 X"
b10000 q"
b1100 I"
b1100 Y"
b1100 p"
b10100110010000000100011 E
b10100110010000000100011 J"
b10100110010000000100011 o"
b10100 C"
b10100 m"
b10100 D#
b10100 H#
b10000 '
b10000 /
b10000 D
b10000 G"
b10000 n"
b10000 |"
b10000 B#
1=
b0 W
b0 !"
b0 N
b0 j
b0 |
b0 '"
b0 .#
1%
#140000
b1000000000 ?"
b1000000000 W"
b1000000000 P#
0%
#150000
1]
b0 F
b0 b
b0 n
b0 )"
b0 4#
0_
b10 i
b10 p
b10 r
b10000000000000 R"
b10000000000000 f"
b10000000000000 3#
b10000000000000 <#
b10000000000000 1#
b10000000000000 1"
b10000000000000 2#
b10000000000000 A#
b100 ."
b100 e"
b100 ##
b100 +#
b100 L"
b100 Z"
b100 6#
0u
b10000010000100 q
b0 /"
b0 !#
b0 0#
b10000000000000 0"
b10000000000000 &#
b10000000000000 ?#
b10000000000000 6"
b10000000000000 (#
b10000000000000 -#
b10000000000000 ;#
b10000000000000 N#
b11000 F"
b11000 {"
b11000 J#
b11000000000001010010011 (
b11000000000001010010011 .
b11000000000001010010011 0
b11000000000001010010011 *"
b11000000000001010010011 k"
b1000011000000110 5#
b110 ;"
b110 S"
b100 8
b100 3"
b100 U"
b100 L#
b100 V#
b0 R
b0 z
b0 Q
b0 t
b10011 U
b10011 {
b10011 T
b10011 l
b10 G
b10 M"
b10 ,#
b10 Z#
b1 H
b1 N"
b1 '#
b1 Y#
b100011 V
b100011 ""
b10 W
b10 !"
1^
0\
b11000 C"
b11000 m"
b11000 D#
b11000 H#
b10100 '
b10100 /
b10100 D
b10100 G"
b10100 n"
b10100 |"
b10100 B#
b10100 E"
b10100 X"
b10100 q"
b10000 I"
b10000 Y"
b10000 p"
b10000110000001100010011 E
b10000110000001100010011 J"
b10000110000001100010011 o"
b10000 D"
b10000 ]"
b10000 c"
b0 K"
b0 ["
b0 }"
b0 F#
b0 A
b0 :"
b0 `"
b0 d"
b0 Q#
b101 7
b101 2"
b101 b"
b101 W#
b110 9
b110 4"
b110 a"
b110 U#
b1100 @"
b1100 "#
b1100 >#
b1100 G#
b1100 H"
b1100 \"
b1100 E#
b1000000000 >"
b1000000000 ^"
b1000000000 $#
b1100 B"
b1100 h"
b1100 s"
b101 @
b101 9"
b101 i"
b101 t"
b101 R#
b100 !
b100 )
b100 ,
b100 M
b100 Q"
b100 g"
b100 r"
b100 %#
b100 *#
b1000 A"
b1000 w"
b1000 9#
b10000000000000 P"
b10000000000000 v"
b10000000000000 7#
1%
#160000
b10000000000000 ?"
b10000000000000 W"
b10000000000000 P#
0%
#170000
b10000000000100 R"
b10000000000100 f"
b10000000000100 3#
b10000000000100 <#
b10000000000100 1#
b100 6"
b100 (#
b100 -#
b100 ;#
b100 N#
b100 /"
b100 !#
b100 0#
b110 L"
b110 Z"
b110 6#
b10000000000000 ="
b10000000000000 V"
b10000000000000 O#
b0 ?"
b0 W"
b0 P#
bx ."
bx e"
bx ##
bx +#
b10100 O"
b10100 =#
b10100 I#
b1100000000000101 5#
b101 ;"
b101 S"
b110 8
b110 3"
b110 U"
b110 L#
b110 V#
b0 :
b0 5"
b0 T"
b0 K#
b0 T#
b11100 F"
b11100 {"
b11100 J#
b10100110010000000100011 (
b10100110010000000100011 .
b10100110010000000100011 0
b10100110010000000100011 *"
b10100110010000000100011 k"
b0 G
b0 M"
b0 ,#
b0 Z#
b0 H
b0 N"
b0 '#
b0 Y#
b1100 A"
b1100 w"
b1100 9#
b101 ?
b101 8"
b101 x"
b101 M#
b101 S#
b100 P"
b100 v"
b100 7#
b10000 B"
b10000 h"
b10000 s"
b0 @
b0 9"
b0 i"
b0 t"
b0 R#
b100 "
b100 *
b100 -
b100 3
b100 -"
b100 j"
b10000000000000 !
b10000000000000 )
b10000000000000 ,
b10000000000000 M
b10000000000000 Q"
b10000000000000 g"
b10000000000000 r"
b10000000000000 %#
b10000000000000 *#
b10100 D"
b10100 ]"
b10100 c"
b100 K"
b100 ["
b100 }"
b100 F#
b110 A
b110 :"
b110 `"
b110 d"
b110 Q#
b100 7
b100 2"
b100 b"
b100 W#
b10100 @"
b10100 "#
b10100 >#
b10100 G#
b10000 H"
b10000 \"
b10000 E#
b10000000000000 >"
b10000000000000 ^"
b10000000000000 $#
b11000 E"
b11000 X"
b11000 q"
b10100 I"
b10100 Y"
b10100 p"
b11000000000001010010011 E
b11000000000001010010011 J"
b11000000000001010010011 o"
b11100 C"
b11100 m"
b11100 D#
b11100 H#
b11000 '
b11000 /
b11000 D
b11000 G"
b11000 n"
b11000 |"
b11000 B#
1#
0>
b10011 V
b10011 ""
b0 W
b0 !"
0^
1\
1%
#180000
0%
